-0.6    6.308    3.840
-0.5    7.550    3.634
-0.4    9.013    3.080
-0.3    9.432    3.594
-0.2   10.048    2.281
-0.1   12.001    1.810
 0.0   12.229    2.157
 0.1   11.678    3.316
 0.2   11.219    4.025
 0.3   11.068    1.993
 0.4   10.213    1.861
 0.5    9.414    1.680
 0.6    8.625    2.480
 0.7    7.457    2.325
 0.8    5.946    2.520
 0.9    4.523    1.349